[gd_scene load_steps=2 format=3 uid="uid://bltfmlhak0v1t"]

[ext_resource type="Script" path="res://sheet/field_synchronizer.gd" id="2_ww7ng"]

[node name="HPCurrent" type="LineEdit"]
placeholder_text = "6"
alignment = 1
max_length = 3
editable = false

[node name="HPSynchronizer" type="Node" parent="."]
script = ExtResource("2_ww7ng")
synch_type = 1
stat_name = "hit_points_current"
target_property = "text"
