[gd_scene load_steps=4 format=3 uid="uid://btt6iighgk1wo"]

[ext_resource type="Script" path="res://main.gd" id="1_goyfj"]
[ext_resource type="PackedScene" uid="uid://bav4lfkwa2q7k" path="res://ui/ui.tscn" id="3_1sby2"]
[ext_resource type="PackedScene" uid="uid://chg8yt3llk2u3" path="res://connection.tscn" id="3_crmfn"]

[node name="Main" type="Control"]
layout_mode = 3
anchors_preset = 15
anchor_right = 1.0
anchor_bottom = 1.0
grow_horizontal = 2
grow_vertical = 2
script = ExtResource("1_goyfj")

[node name="Connection" parent="." instance=ExtResource("3_crmfn")]

[node name="UI" parent="." instance=ExtResource("3_1sby2")]
layout_mode = 1
