[gd_scene load_steps=2 format=3 uid="uid://ho2jbmrr5mtw"]

[ext_resource type="Script" path="res://network_menu.gd" id="1_6jul0"]

[node name="NetworkMenu" type="MarginContainer"]
custom_minimum_size = Vector2(256, 128)
size_flags_horizontal = 4
theme_override_constants/margin_left = 24
theme_override_constants/margin_top = 8
theme_override_constants/margin_right = 24
theme_override_constants/margin_bottom = 8
script = ExtResource("1_6jul0")

[node name="JoinForm" type="VBoxContainer" parent="."]
offset_left = 24.0
offset_top = 8.0
offset_right = 232.0
offset_bottom = 120.0
alignment = 1

[node name="IPEdit" type="LineEdit" parent="JoinForm"]
unique_name_in_owner = true
offset_top = 5.0
offset_right = 208.0
offset_bottom = 36.0
placeholder_text = "8.8.8.8"
alignment = 1

[node name="PortEdit" type="LineEdit" parent="JoinForm"]
unique_name_in_owner = true
offset_top = 40.0
offset_right = 208.0
offset_bottom = 71.0
text = "1337"
alignment = 1

[node name="JoinButton" type="Button" parent="JoinForm"]
offset_top = 75.0
offset_right = 208.0
offset_bottom = 106.0
text = "JOIN"

[node name="DisconnectForm" type="VBoxContainer" parent="."]
visible = false
offset_left = 24.0
offset_top = 8.0
offset_right = 232.0
offset_bottom = 120.0
alignment = 1

[node name="DisconnectButton" type="Button" parent="DisconnectForm"]
text = "LEAVE"

[connection signal="pressed" from="JoinForm/JoinButton" to="." method="_on_join_requested"]
[connection signal="pressed" from="DisconnectForm/DisconnectButton" to="." method="_on_disconnection_requested"]
