[gd_scene load_steps=3 format=3 uid="uid://pjisi20v6di6"]

[ext_resource type="Script" path="res://player_tracker.gd" id="1_13e2k"]
[ext_resource type="PackedScene" uid="uid://c6mvd87ncdr8a" path="res://player.tscn" id="2_mvo4u"]

[node name="PlayerTracker" type="Node"]
script = ExtResource("1_13e2k")
player_scn = ExtResource("2_mvo4u")
