[gd_resource type="Resource" load_steps=2 format=3 uid="uid://ca4tc1771g4ib"]

[ext_resource type="Script" path="res://character_data.gd" id="1_x670h"]

[resource]
script = ExtResource("1_x670h")
name = "Bobdude"
hit_points_max = 10
hit_points_current = 10
